<svg width="192" height="192" viewBox="0 0 192 192" fill="none" xmlns="http://www.w3.org/2000/svg">
<rect width="192" height="192" rx="28" fill="#E5DDF0"/>
<rect x="8" y="8" width="175" height="176" rx="21" fill="url(#paint0_linear)"/>
<path d="M45.1311 81.392C46.7951 81.392 48.1231 81.552 49.1151 81.872C50.1071 82.192 51.1151 82.656 52.1391 83.264C52.4911 83.456 52.7951 83.616 53.0511 83.744C53.3391 83.872 53.5791 83.936 53.7711 83.936C54.0591 83.936 54.2831 83.776 54.4431 83.456C54.6031 83.104 54.7311 82.56 54.8271 81.824H55.9311C55.7711 83.968 55.6911 87.616 55.6911 92.768H54.5871C54.4591 91.04 54.0591 89.392 53.3871 87.824C52.7471 86.256 51.8191 84.992 50.6031 84.032C49.4191 83.04 48.0271 82.544 46.4271 82.544C44.8591 82.544 43.5791 82.992 42.5871 83.888C41.6271 84.752 41.1471 85.936 41.1471 87.44C41.1471 88.56 41.3871 89.536 41.8671 90.368C42.3471 91.2 43.0191 91.968 43.8831 92.672C44.7471 93.344 46.0751 94.272 47.8671 95.456L49.4031 96.512C51.2911 97.76 52.7791 98.848 53.8671 99.776C54.9551 100.704 55.8351 101.792 56.5071 103.04C57.2111 104.256 57.5631 105.68 57.5631 107.312C57.5631 109.36 57.0351 111.088 55.9791 112.496C54.9231 113.872 53.4831 114.912 51.6591 115.616C49.8671 116.32 47.8671 116.672 45.6591 116.672C43.8671 116.672 42.3791 116.512 41.1951 116.192C40.0111 115.872 38.9231 115.44 37.9311 114.896C37.2271 114.448 36.6831 114.224 36.2991 114.224C36.0111 114.224 35.7871 114.4 35.6271 114.752C35.4671 115.072 35.3391 115.6 35.2431 116.336H34.1391C34.2671 114.32 34.3311 110 34.3311 103.376H35.4351C35.6591 106.96 36.4591 109.872 37.8351 112.112C39.2111 114.32 41.3231 115.424 44.1711 115.424C45.8991 115.424 47.3231 114.96 48.4431 114.032C49.5631 113.104 50.1231 111.776 50.1231 110.048C50.1231 108.256 49.5471 106.72 48.3951 105.44C47.2431 104.16 45.4191 102.72 42.9231 101.12C41.0031 99.872 39.4671 98.784 38.3151 97.856C37.1631 96.928 36.2191 95.84 35.4831 94.592C34.7471 93.312 34.3791 91.84 34.3791 90.176C34.3791 88.256 34.8591 86.64 35.8191 85.328C36.8111 83.984 38.1231 82.992 39.7551 82.352C41.3871 81.712 43.1791 81.392 45.1311 81.392ZM80.2663 110.768C80.2663 112.24 80.4903 113.312 80.9383 113.984C81.4183 114.656 82.2183 114.992 83.3383 114.992V116C82.3463 115.904 81.3543 115.856 80.3623 115.856C77.5783 115.856 75.2423 116.08 73.3543 116.528V112.208C71.8823 115.184 69.3063 116.672 65.6263 116.672C63.2263 116.672 61.4823 116.048 60.3943 114.8C59.8823 114.192 59.4983 113.408 59.2423 112.448C59.0183 111.456 58.9063 110.16 58.9063 108.56V96.416C58.9063 94.944 58.6663 93.872 58.1863 93.2C57.7383 92.528 56.9543 92.192 55.8343 92.192V91.184C56.8263 91.28 57.8183 91.328 58.8103 91.328C61.5943 91.328 63.9303 91.104 65.8183 90.656V110.528C65.8183 111.872 66.0103 112.88 66.3943 113.552C66.8103 114.224 67.5783 114.56 68.6983 114.56C69.9783 114.56 71.0663 114.032 71.9623 112.976C72.8903 111.888 73.3543 110.56 73.3543 108.992V96.416C73.3543 94.944 73.1143 93.872 72.6343 93.2C72.1863 92.528 71.4023 92.192 70.2823 92.192V91.184C71.3063 91.28 72.2983 91.328 73.2583 91.328C76.0423 91.328 78.3783 91.104 80.2663 90.656V110.768ZM97.6157 90.512C100.208 90.512 102.304 91.584 103.904 93.728C105.504 95.84 106.304 98.912 106.304 102.944C106.304 107.648 105.28 111.12 103.232 113.36C101.184 115.568 98.5437 116.672 95.3117 116.672C93.1037 116.672 91.3117 116.112 89.9357 114.992C88.7837 114.896 87.6317 115.024 86.4797 115.376C85.3277 115.728 84.4157 116.192 83.7437 116.768L83.0237 116.336C83.2477 115.536 83.3597 114.64 83.3597 113.648V84.224C83.3597 82.752 83.1197 81.68 82.6397 81.008C82.1917 80.336 81.4077 80 80.2877 80V78.992C81.2797 79.088 82.2717 79.136 83.2637 79.136C86.0477 79.136 88.3837 78.912 90.2717 78.464V95.072C90.9437 93.6 91.9197 92.48 93.1997 91.712C94.4797 90.912 95.9517 90.512 97.6157 90.512ZM93.8237 115.664C95.5837 115.664 96.8957 114.672 97.7597 112.688C98.6237 110.704 99.0557 107.68 99.0557 103.616C99.0557 99.68 98.6877 96.864 97.9517 95.168C97.2157 93.44 96.1597 92.576 94.7837 92.576C93.7597 92.576 92.8157 92.96 91.9517 93.728C91.1197 94.464 90.5597 95.472 90.2717 96.752V114.368C91.3277 115.232 92.5117 115.664 93.8237 115.664ZM114.461 90.512C115.677 90.512 116.797 90.672 117.821 90.992C118.845 91.28 119.629 91.616 120.173 92C120.493 92.224 120.781 92.336 121.037 92.336C121.325 92.336 121.565 92.192 121.757 91.904C121.981 91.584 122.125 91.136 122.189 90.56H123.197C123.069 92.192 123.005 95.008 123.005 99.008H121.997C121.709 96.896 121.069 95.136 120.077 93.728C119.117 92.288 117.709 91.568 115.853 91.568C114.893 91.568 114.093 91.84 113.453 92.384C112.845 92.928 112.541 93.68 112.541 94.64C112.541 95.728 112.909 96.672 113.645 97.472C114.381 98.24 115.533 99.184 117.101 100.304L118.493 101.312C120.445 102.784 121.885 104.096 122.813 105.248C123.741 106.4 124.205 107.84 124.205 109.568C124.205 110.976 123.789 112.224 122.957 113.312C122.157 114.4 121.069 115.232 119.693 115.808C118.317 116.384 116.797 116.672 115.133 116.672C113.373 116.672 111.869 116.336 110.621 115.664C109.597 115.152 108.861 114.816 108.413 114.656C108.093 114.56 107.805 114.672 107.549 114.992C107.325 115.28 107.149 115.728 107.021 116.336H106.013C106.141 114.512 106.205 111.312 106.205 106.736H107.213C107.853 112.624 110.013 115.568 113.693 115.568C114.621 115.568 115.405 115.296 116.045 114.752C116.717 114.176 117.053 113.312 117.053 112.16C117.053 111.264 116.845 110.464 116.429 109.76C116.045 109.056 115.549 108.432 114.941 107.888C114.333 107.344 113.421 106.592 112.205 105.632C110.765 104.48 109.661 103.552 108.893 102.848C108.157 102.144 107.517 101.312 106.973 100.352C106.461 99.392 106.205 98.32 106.205 97.136C106.205 95.088 107.005 93.472 108.605 92.288C110.205 91.104 112.157 90.512 114.461 90.512Z" fill="black"/>
<path d="M138.121 82.976C137.033 83.04 136.249 83.168 135.769 83.36C135.289 83.552 134.953 83.92 134.761 84.464C134.601 85.008 134.521 85.888 134.521 87.104V110.912C134.521 112.128 134.601 113.008 134.761 113.552C134.953 114.096 135.289 114.464 135.769 114.656C136.249 114.848 137.033 114.976 138.121 115.04V116C136.393 115.904 133.977 115.856 130.873 115.856C127.449 115.856 124.921 115.904 123.289 116V115.04C124.345 114.976 125.113 114.848 125.593 114.656C126.105 114.464 126.441 114.096 126.601 113.552C126.793 113.008 126.889 112.128 126.889 110.912V87.104C126.889 85.888 126.793 85.008 126.601 84.464C126.441 83.92 126.105 83.552 125.593 83.36C125.113 83.168 124.345 83.04 123.289 82.976V82.016C124.921 82.112 127.449 82.16 130.873 82.16C133.977 82.16 136.393 82.112 138.121 82.016V82.976ZM145.904 91.184H151.568V92.144H145.904V111.536C145.904 112.496 146.064 113.184 146.384 113.6C146.736 113.984 147.28 114.176 148.016 114.176C149.392 114.176 150.48 113.216 151.28 111.296L152.096 111.728C150.88 115.024 148.688 116.672 145.52 116.672C143.408 116.672 141.808 116.128 140.72 115.04C140.048 114.368 139.584 113.536 139.328 112.544C139.104 111.52 138.992 110.128 138.992 108.368V92.144H134.96V91.184H138.992V84.848C141.648 84.848 143.952 84.336 145.904 83.312V91.184ZM154.043 109.28C155.291 109.28 156.283 109.616 157.019 110.288C157.755 110.928 158.123 111.824 158.123 112.976C158.123 114.128 157.755 115.04 157.019 115.712C156.283 116.352 155.291 116.672 154.043 116.672C152.795 116.672 151.803 116.352 151.067 115.712C150.331 115.04 149.963 114.128 149.963 112.976C149.963 111.824 150.331 110.928 151.067 110.288C151.803 109.616 152.795 109.28 154.043 109.28Z" fill="#8F48EA"/>
<rect x="48" y="14" width="128" height="19" rx="9.5" fill="#EDEDED"/>
<rect x="17" y="14" width="19" height="19" rx="9.5" fill="#EDEDED"/>
<defs>
<linearGradient id="paint0_linear" x1="96.0178" y1="250.13" x2="96.0178" y2="109.538" gradientUnits="userSpaceOnUse">
<stop offset="0.28846" stop-color="#B6AFBE"/>
<stop offset="1" stop-color="#B6AFBE" stop-opacity="0"/>
</linearGradient>
</defs>
</svg>
